[{
  "_id": {
    "$oid": "5d272ce8b0ddd52b3b31e277"
  },
  "name": "Farina Tipo00",
  "stock": 23,
  "type": "FarinaLievito",
  "image": "tipo00.png",
  "supplier": "Barilla",
  "logo_supplier": "barilla-logo.png",
  "min_stock": 2
},{
  "_id": {
    "$oid": "5d272ce8b0ddd52b3b31e275"
  },
  "name": "Gorgonzola",
  "stock": 19,
  "type": "SalumiFormaggi",
  "image": "gorgonzola.png",
  "supplier": "SalumiFormaggi",
  "logo_supplier": "logoSalumiFormaggi1.png",
  "min_stock": 4
},{
  "_id": {
    "$oid": "5d272c63b0ddd52b3b31e272"
  },
  "name": "Beck's",
  "stock": 34,
  "type": "Bibita",
  "image": "Beck's.png",
  "supplier": "Partesa",
  "logo_supplier": "Partesa.png",
  "min_stock": 3
},{
  "_id": {
    "$oid": "5d272c64b0ddd52b3b31e273"
  },
  "name": "Sale",
  "stock": 20,
  "type": "FarinaLievito",
  "image": "sale.png",
  "supplier": "Italkali",
  "logo_supplier": "italkali-logo.jpeg",
  "min_stock": 6
},{
  "_id": {
    "$oid": "5d24a863780e320b3b107749"
  },
  "name": "Peperoni",
  "stock": 19,
  "type": "Ortofrutta",
  "image": "peperoniBarattolo.png",
  "supplier": "Arca",
  "logo_supplier": "Arca.png",
  "min_stock": 5
},{
  "_id": {
    "$oid": "5d272ce8b0ddd52b3b31e279"
  },
  "name": "Parmigiano",
  "stock": 19,
  "type": "SalumiFormaggi",
  "image": "parmiggiano.png",
  "supplier": "SalumiFormaggi",
  "logo_supplier": "logoSalumiFormaggi1.png",
  "min_stock": 10
},{
  "_id": {
    "$oid": "5d272ce8b0ddd52b3b31e27a"
  },
  "name": "Coca-cola",
  "stock": 26,
  "type": "Bibita",
  "image": "Coca-cola.png",
  "supplier": "Partesa",
  "logo_supplier": "Partesa.png",
  "min_stock": 15
},{
  "_id": {
    "$oid": "5d25fbc2d40d6420d8bb6620"
  },
  "name": "Zucchine",
  "stock": 43,
  "type": "Ortofrutta",
  "image": "Zucchine-sottolio.png",
  "min_stock": 5,
  "supplier": "Arca",
  "logo_supplier": "Arca.png"
},{
  "_id": {
    "$oid": "5d272e33a4d0781bafc6f7f6"
  },
  "name": "squacquerone",
  "stock": 9,
  "type": "AlcoholFree",
  "image": "squacquerone.png",
  "supplier": "SalumiFormaggi",
  "logo_supplier": "logoSalumiFormaggi1.png",
  "min_stock": 20
},{
  "_id": {
    "$oid": "5d272e33a4d0781bafc6f7f7"
  },
  "name": "Fanta",
  "stock": 21,
  "type": "Bibita",
  "image": "Fanta.png",
  "supplier": "Partesa",
  "logo_supplier": "Partesa.png",
  "min_stock": 4
},{
  "_id": {
    "$oid": "5d272e33a4d0781bafc6f7fa"
  },
  "name": "Feta",
  "stock": 22,
  "type": "SalumiFormaggi",
  "image": "feta.png",
  "supplier": "SalumiFormaggi",
  "logo_supplier": "logoSalumiFormaggi1.png",
  "min_stock": 15
},{
  "_id": {
    "$oid": "5d272e33a4d0781bafc6f7f8"
  },
  "name": "Heineken",
  "stock": 23,
  "type": "Bibita",
  "image": "Heineken.png",
  "supplier": "Partesa",
  "logo_supplier": "Partesa.png",
  "min_stock": "3"
},{
  "_id": {
    "$oid": "5d272c63b0ddd52b3b31e271"
  },
  "name": "Brie",
  "stock": 17,
  "type": "SalumiFormaggi",
  "image": "brie.png",
  "supplier": "SalumiFormaggi",
  "logo_supplier": "logoSalumiFormaggi1.png",
  "min_stock": 5
},{
  "_id": {
    "$oid": "5d2f2bc4cf446618103e2add"
  },
  "stock": 22,
  "name": "Funghi",
  "type": "Ortofrutta",
  "image": "tris-di-funghi.png",
  "supplier": "OrtoPronto",
  "logo_supplier": "logoOrtoPronto.png",
  "min_stock": 5
},{
  "_id": {
    "$oid": "5d272e33a4d0781bafc6f7fb"
  },
  "name": "Forst Felsenkeller",
  "stock": 147,
  "type": "Bibita",
  "image": "ForstFelsenkeller.png",
  "supplier": "Partesa",
  "logo_supplier": "Partesa.png",
  "min_stock": 3
},{
  "_id": {
    "$oid": "5d272e34a4d0781bafc6f7fc"
  },
  "name": "Farina al camut",
  "stock": 21,
  "type": "FarinaLievito",
  "image": "camut.png",
  "supplier": "Partesa",
  "logo_supplier": "Partesa.png",
  "min_stock": 3
},{
  "_id": {
    "$oid": "5d2f2c3a45088931406006cf"
  },
  "stock": 16,
  "name": "Melanzane",
  "type": "Ortofrutta",
  "image": "melanzane-sotto-olio.png",
  "supplier": "Arca",
  "logo_supplier": "Arca.png",
  "min_stock": 5
},{
  "_id": {
    "$oid": "5d348fcbb5feaa340ccf029c"
  },
  "stock": 15,
  "name": "Rucola",
  "type": "Ortofrutta",
  "image": "rucola-bio.png",
  "supplier": "OrtoPronto",
  "logo_supplier": "logoOrtoPronto.png",
  "min_stock": 3
},{
  "_id": {
    "$oid": "5d348ff0b5feaa340ccf029d"
  },
  "stock": 32,
  "name": "Basilico",
  "type": "Ortofrutta",
  "image": "basilico-bio.png",
  "supplier": "OrtoPronto",
  "logo_supplier": "logoOrtoPronto.png",
  "min_stock": 3
},{
  "_id": {
    "$oid": "5d2f2e9d5f66ec3204e71cc9"
  },
  "stock": 21,
  "name": "Radicchio",
  "type": "Ortofrutta",
  "image": "radicchio.png",
  "supplier": "OrtoPronto",
  "logo_supplier": "logoOrtoPronto.png",
  "min_stock": 10
},{
  "_id": {
    "$oid": "5d349043b5feaa340ccf029f"
  },
  "stock": 32,
  "name": "Olive",
  "type": "Ortofrutta",
  "image": "olive-cerignola.png",
  "supplier": "Arca",
  "logo_supplier": "Arca.png",
  "min_stock": 3
},{
  "_id": {
    "$oid": "5d34904fb5feaa340ccf02a0"
  },
  "stock": 31,
  "name": "Capperi",
  "type": "Ortofrutta",
  "image": "capperi.png",
  "supplier": "Arca",
  "logo_supplier": "Arca.png",
  "min_stock": 3
},{
  "_id": {
    "$oid": "5d3490dcb5feaa340ccf02a1"
  },
  "stock": 41,
  "name": "Fagioli",
  "type": "Ortofrutta",
  "image": "fagioli-borlotti-pronti.png",
  "supplier": "Arca",
  "logo_supplier": "Arca.png",
  "min_stock": 3
},{
  "_id": {
    "$oid": "5d3491e7b5feaa340ccf02a6"
  },
  "stock": 16,
  "name": "Aglio",
  "type": "Ortofrutta",
  "image": "aglio-bio.png",
  "supplier": "OrtoPronto",
  "logo_supplier": "logoOrtoPronto.png",
  "min_stock": 3
},{
  "_id": {
    "$oid": "5d34923ab5feaa340ccf02a7"
  },
  "stock": 17,
  "name": "Prosciutto Cotto",
  "type": "SalumiFormaggi",
  "image": "prosciuttoCotto.png",
  "supplier": "SalumiFormaggi",
  "logo_supplier": "logoSalumiFormaggi1.png",
  "min_stock": 3
},{
  "_id": {
    "$oid": "5d349122b5feaa340ccf02a3"
  },
  "stock": 13,
  "name": "Cipolla",
  "type": "Ortofrutta",
  "image": "cipolla-agro.png",
  "supplier": "Arca",
  "logo_supplier": "Arca.png",
  "min_stock": 3
},{
  "_id": {
    "$oid": "5d34924db5feaa340ccf02a8"
  },
  "stock": 21,
  "name": "Prosciutto Crudo",
  "type": "SalumiFormaggi",
  "image": "prosciuttoCrudoParma.png",
  "supplier": "SalumiFormaggi",
  "logo_supplier": "logoSalumiFormaggi1.png",
  "min_stock": 3
},{
  "_id": {
    "$oid": "5d34925fb5feaa340ccf02a9"
  },
  "stock": 25,
  "name": "Pancetta",
  "type": "SalumiFormaggi",
  "image": "pancetta.png",
  "supplier": "SalumiFormaggi",
  "logo_supplier": "logoSalumiFormaggi1.png",
  "min_stock": 3
},{
  "_id": {
    "$oid": "5d34927ab5feaa340ccf02ab"
  },
  "stock": 17,
  "name": "Speck",
  "type": "SalumiFormaggi",
  "image": "speck.png",
  "supplier": "SalumiFormaggi",
  "logo_supplier": "logoSalumiFormaggi1.png",
  "min_stock": 3
},{
  "_id": {
    "$oid": "5d349270b5feaa340ccf02aa"
  },
  "stock": 40,
  "name": "Mozzarella",
  "type": "SalumiFormaggi",
  "image": "mozzarella-fiordilatte.png",
  "supplier": "SalumiFormaggi",
  "logo_supplier": "logoSalumiFormaggi1.png",
  "min_stock": 3
},{
  "_id": {
    "$oid": "5d349283b5feaa340ccf02ac"
  },
  "stock": 22,
  "name": "Bresaola di Tacchino",
  "type": "SalumiFormaggi",
  "image": "bresaoladitacchino.png",
  "supplier": "SalumiFormaggi",
  "logo_supplier": "logoSalumiFormaggi1.png",
  "min_stock": 3
},{
  "_id": {
    "$oid": "5d34928cb5feaa340ccf02ad"
  },
  "stock": 18,
  "name": "Bresaola",
  "type": "SalumiFormaggi",
  "image": "Bresaola1.png",
  "supplier": "SalumiFormaggi",
  "logo_supplier": "logoSalumiFormaggi1.png",
  "min_stock": 3
},{
  "_id": {
    "$oid": "5d349310b5feaa340ccf02b2"
  },
  "stock": 12,
  "name": "Forst Pils",
  "type": "Bibita",
  "image": "ForstPils.png",
  "supplier": "Arca",
  "logo_supplier": "Arca.png",
  "min_stock": 3
},{
  "_id": {
    "$oid": "5d3492d4b5feaa340ccf02b0"
  },
  "stock": 21,
  "name": "Salsiccia",
  "type": "SalumiFormaggi",
  "image": "salsiccia.png",
  "supplier": "SalumiFormaggi",
  "logo_supplier": "logoSalumiFormaggi1.png",
  "min_stock": 3
},{
  "_id": {
    "$oid": "5d3492dfb5feaa340ccf02b1"
  },
  "stock": 17,
  "name": "Salame Piccante",
  "type": "SalumiFormaggi",
  "image": "salamepiccante.png",
  "supplier": "SalumiFormaggi",
  "logo_supplier": "logoSalumiFormaggi1.png",
  "min_stock": 3
},{
  "_id": {
    "$oid": "5d349346b5feaa340ccf02b4"
  },
  "stock": 21,
  "name": "Forst Weiss",
  "type": "Bibita",
  "image": "ForstWeiss.png",
  "supplier": "Arca",
  "logo_supplier": "Arca.png",
  "min_stock": 3
},{
  "_id": {
    "$oid": "5d6e796503643d243cbc9130"
  },
  "name": "Farina di Farro Integrale",
  "type": "FarinaLievito",
  "stock": 21,
  "min_stock": 10,
  "supplier": "NaturaSi",
  "logo_supplier": "naturasi.png",
  "image": "farinafarro.png"
},{
  "_id": {
    "$oid": "5d6e7b4d03643d243cbc9131"
  },
  "name": "Farina Integrale",
  "type": "FarinaLievito",
  "stock": 21,
  "image": "integrale.png",
  "supplier": "Barilla",
  "logo_supplier": "barilla2.jpg",
  "min_stock": 18
},{
  "_id": {
    "$oid": "5d6e7ccf03643d243cbc9132"
  },
  "name": "olio",
  "image": "olio1.png",
  "stock": 29,
  "min_stock": 15,
  "type": "FarinaLievito",
  "supplier": "olio",
  "logo_supplier": "logoOlio1.png"
},{
  "_id": {
    "$oid": "5d6e7e1803643d243cbc9133"
  },
  "name": "Hoegarden",
  "image": "Hoegarden.png",
  "stock": 22,
  "min_stock": 15,
  "supplier": "Partesa",
  "logo_supplier": "Partesa.png",
  "type": "Bibita"
},{
  "_id": {
    "$oid": "5d4ae693032fad2c78adb613"
  },
  "name": "Wurstel",
  "type": "SalumiFormaggi",
  "stock": 30,
  "image": "wurstel.png",
  "supplier": "SalumiFormaggi",
  "logo_supplier": "logoSalumiFormaggi1.png",
  "min_stock": 3
},{
  "_id": {
    "$oid": "5d6e801d03643d243cbc9139"
  },
  "name": "Tuborg",
  "image": "Tuborg.png",
  "stock": 14,
  "min_stock": 25,
  "type": "Bibita",
  "supplier": "Partesa",
  "logo_supplier": "Partesa.png"
},{
  "_id": {
    "$oid": "5d34948fb5feaa340ccf02bb"
  },
  "stock": 31,
  "name": "Mais",
  "type": "Ortofrutta",
  "image": "mais-bonduelle.png",
  "supplier": "Arca",
  "logo_supplier": "Arca.png",
  "min_stock": 3
},{
  "_id": {
    "$oid": "60756b86e071e9220ceb0b25"
  },
  "name": "Franziskaner",
  "image": "Franziskaner.png",
  "stock": 22,
  "min_stock": 15,
  "supplier": "Partesa",
  "logo_supplier": "Partesa.png",
  "type": "Bibita"
},{
  "_id": {
    "$oid": "607570f7e071e9220ceb0b26"
  },
  "name": "Farina senza glutine",
  "type": "FarinaLievito",
  "stock": 20,
  "min_stock": 10,
  "supplier": "NaturaSi",
  "logo_supplier": "naturasi.png",
  "image": "glutinfree.png"
},{
  "_id": {
    "$oid": "607572dee071e9220ceb0b27"
  },
  "name": "Farina All Purpose",
  "type": "FarinaLievito",
  "stock": 22,
  "min_stock": 10,
  "supplier": "NaturaSi",
  "logo_supplier": "naturasi.png",
  "image": "farinagold.png"
},{
  "_id": {
    "$oid": "60757379e071e9220ceb0b28"
  },
  "name": "Farina tipo 0",
  "type": "FarinaLievito",
  "stock": 1,
  "min_stock": 10,
  "supplier": "Barilla",
  "logo_supplier": "barilla2.jpg",
  "image": "barilla-flour1.png"
},{
  "_id": {
    "$oid": "6075758ee071e9220ceb0b29"
  },
  "name": "Farina bio",
  "type": "FarinaLievito",
  "stock": 25,
  "min_stock": 10,
  "supplier": "Barilla",
  "logo_supplier": "barilla2.jpg",
  "image": "farinasemola.png"
},{
  "_id": {
    "$oid": "6075b713e071e9220ceb0b2a"
  },
  "stock": 16,
  "name": "Pancetta Arrotolata",
  "type": "SalumiFormaggi",
  "image": "Pancetta_Arrotolata.png",
  "supplier": "SalumiFormaggi",
  "logo_supplier": "logoSalumiFormaggi1.png",
  "min_stock": 3
},{
  "_id": {
    "$oid": "6075bf87e071e9220ceb0b2b"
  },
  "stock": 16,
  "name": "Sugo al pomodoro",
  "type": "Ortofrutta",
  "image": "sugo_al_pomodoro.png",
  "supplier": "OrtoPronto",
  "logo_supplier": "logoOrtoPronto.png",
  "min_stock": 3
},{
  "_id": {
    "$oid": "60804b3560fa1d2238bae24c"
  },
  "name": "Patate",
  "stock": 16,
  "type": "Ortofrutta",
  "image": "patatine_surg.png",
  "supplier": "Arca",
  "logo_supplier": "Arca.png",
  "min_stock": 5
}]